{
  "code": 1,
  "message": "success",
  "bean": {
    "totalCount": 20,
    "totalPage": 2,
    "pageNo": 1,
    "pageSize": 2,
    "data|2": [
      {
        "id|+1": 1,
        "name": "@cname",
        "gender|0-1": 0,
        "age|1-100": 100,
        "money|1-100.1-3": 1,
        "bool|1-2": true,
        "title": "@ctitle(5)",
        "email": "@email",
        "ip": "@ip",
        "image": "@image(300x300, #50B347, #FFF, png, text)",
        "cparagraph": "@cparagraph(1,3)",
        "time": "@time",
        "date": "@date",
        "datetime": "@datetime",
        "now": "@now",
        "address": "@province @city(true) @county(true)"
      }
    ]
  }
}
